{
  "clientes": [
    {
      "nombre": "jesus raul",
      "apellidos": "alarcon ontiversasd",
      "telefono": "6673775907",
      "telefonoConfirm": "asasd",
      "email": "lowlevelcode@gmail.com",
      "id": "99fe2d69-08f5-42d5-b95f-5c9902104c0c"
    },
    {
      "nombre": "jesus raul",
      "apellidos": "alarcon ontiversasasd",
      "telefono": "6673775907",
      "telefonoConfirm": "asdas",
      "email": "lowlevelcode@gmail.com",
      "id": "15d68927-72b4-4060-8028-60f756a997f2"
    }
  ]
}